…
```r
filter( gapminder, lifeExp > 80)
```

```
## # A tibble: 21 × 6
##    country          continent  year lifeExp      pop gdpPercap
##    <fct>            <fct>     <int>   <dbl>    <int>     <dbl>
##  1 Australia        Oceania    2002    80.4 19546792    30688.
##  2 Australia        Oceania    2007    81.2 20434176    34435.
##  3 Canada           Americas   2007    80.7 33390141    36319.
##  4 France           Europe     2007    80.7 61083916    30470.
##  5 Hong Kong, China Asia       2002    81.5  6762476    30209.
##  6 Hong Kong, China Asia       2007    82.2  6980412    39725.
##  7 Iceland          Europe     2002    80.5   288030    31163.
##  8 Iceland          Europe     2007    81.8   301931    36181.
##  9 Israel           Asia       2007    80.7  6426679    25523.
## 10 Italy            Europe     2002    80.2 57926999    27968.
## # … with 11 more rows
## # ℹ Use `print(n = ...)` to see more rows
```


```r
filter( gapminder, year == 2007 )
```

```
## # A tibble: 142 × 6
##    country     continent  year lifeExp       pop gdpPercap
##    <fct>       <fct>     <int>   <dbl>     <int>     <dbl>
##  1 Afghanistan Asia       2007    43.8  31889923      975.
##  2 Albania     Europe     2007    76.4   3600523     5937.
##  3 Algeria     Africa     2007    72.3  33333216     6223.
##  4 Angola      Africa     2007    42.7  12420476     4797.
##  5 Argentina   Americas   2007    75.3  40301927    12779.
##  6 Australia   Oceania    2007    81.2  20434176    34435.
##  7 Austria     Europe     2007    79.8   8199783    36126.
##  8 Bahrain     Asia       2007    75.6    708573    29796.
##  9 Bangladesh  Asia       2007    64.1 150448339     1391.
## 10 Belgium     Europe     2007    79.4  10392226    33693.
## # … with 132 more rows
## # ℹ Use `print(n = ...)` to see more rows
```

2. select
The `select()` function selects desired variables


```r
select( gapminder, country, year, gdpPercap)
```

```
## # A tibble: 1,704 × 3
##    country      year gdpPercap
##    <fct>       <int>     <dbl>
##  1 Afghanistan  1952      779.
##  2 Afghanistan  1957      821.
##  3 Afghanistan  1962      853.
##  4 Afghanistan  1967      836.
##  5 Afghanistan  1972      740.
##  6 Afghanistan  1977      786.
##  7 Afghanistan  1982      978.
##  8 Afghanistan  1987      852.
##  9 Afghanistan  1992      649.
## 10 Afghanistan  1997      635.
## # … with 1,694 more rows
## # ℹ Use `print(n = ...)` to see more rows
```
…
```r
select( gapminder, 1, 4:6 )
```

```
## # A tibble: 1,704 × 4
##    country     lifeExp      pop gdpPercap
##    <fct>         <dbl>    <int>     <dbl>
##  1 Afghanistan    28.8  8425333      779.
##  2 Afghanistan    30.3  9240934      821.
##  3 Afghanistan    32.0 10267083      853.
##  4 Afghanistan    34.0 11537966      836.
##  5 Afghanistan    36.1 13079460      740.
##  6 Afghanistan    38.4 14880372      786.
##  7 Afghanistan    39.9 12881816      978.
##  8 Afghanistan    40.8 13867957      852.
##  9 Afghanistan    41.7 16317921      649.
## 10 Afghanistan    41.8 22227415      635.
## # … with 1,694 more rows
## # ℹ Use `print(n = ...)` to see more rows
```


```r
select( gapminder, where(is.factor) | where(is.integer) )
```

```
## # A tibble: 1,704 × 4
##    country     continent  year      pop
##    <fct>       <fct>     <int>    <int>
##  1 Afghanistan Asia       1952  8425333
##  2 Afghanistan Asia       1957  9240934
##  3 Afghanistan Asia       1962 10267083
##  4 Afghanistan Asia       1967 11537966
##  5 Afghanistan Asia       1972 13079460
##  6 Afghanistan Asia       1977 14880372
##  7 Afghanistan Asia       1982 12881816
##  8 Afghanistan Asia       1987 13867957
##  9 Afghanistan Asia       1992 16317921
## 10 Afghanistan Asia       1997 22227415
## # … with 1,694 more rows
## # ℹ Use `print(n = ...)` to see more rows
```
…
3. arrange
The `arrange()` function sorts data in a column in either ascending or descending order. 


```r
arrange( gapminder, gdpPercap ) # arranges lowest to highest
```

```
## # A tibble: 1,704 × 6
##    country          continent  year lifeExp      pop gdpPercap
##    <fct>            <fct>     <int>   <dbl>    <int>     <dbl>
##  1 Congo, Dem. Rep. Africa     2002    45.0 55379852      241.
##  2 Congo, Dem. Rep. Africa     2007    46.5 64606759      278.
##  3 Lesotho          Africa     1952    42.1   748747      299.
##  4 Guinea-Bissau    Africa     1952    32.5   580653      300.
##  5 Congo, Dem. Rep. Africa     1997    42.6 47798986      312.
##  6 Eritrea          Africa     1952    35.9  1438760      329.
##  7 Myanmar          Asia       1952    36.3 20092996      331 
##  8 Lesotho          Africa     1957    45.0   813338      336.
##  9 Burundi          Africa     1952    39.0  2445618      339.
## 10 Eritrea          Africa     1957    38.0  1542611      344.
## # … with 1,694 more rows
## # ℹ Use `print(n = ...)` to see more rows
```


```r
arrange( gapminder, desc(gdpPercap) ) # arranges highest to lowest
```

```
## # A tibble: 1,704 × 6
##    country   continent  year lifeExp     pop gdpPercap
##    <fct>     <fct>     <int>   <dbl>   <int>     <dbl>
##  1 Kuwait    Asia       1957    58.0  212846   113523.
##  2 Kuwait    Asia       1972    67.7  841934   109348.
##  3 Kuwait    Asia       1952    55.6  160000   108382.
##  4 Kuwait    Asia       1962    60.5  358266    95458.
##  5 Kuwait    Asia       1967    64.6  575003    80895.
##  6 Kuwait    Asia       1977    69.3 1140357    59265.
##  7 Norway    Europe     2007    80.2 4627926    49357.
##  8 Kuwait    Asia       2007    77.6 2505559    47307.
##  9 Singapore Asia       2007    80.0 4553009    47143.
## 10 Norway    Europe     2002    79.0 4535591    44684.
## # … with 1,694 more rows
## # ℹ Use `print(n = ...)` to see more rows
```

4. mutate
The `mutate()` function adds new columns to the data. For adding a `gdp` column, 


```r
mutate( gapminder, gdp = pop * gdpPercap )
```

```
## # A tibble: 1,704 × 7
##    country     continent  year lifeExp      pop gdpPercap          gdp
##    <fct>       <fct>     <int>   <dbl>    <int>     <dbl>        <dbl>
##  1 Afghanistan Asia       1952    28.8  8425333      779.  6567086330.
##  2 Afghanistan Asia       1957    30.3  9240934      821.  7585448670.
##  3 Afghanistan Asia       1962    32.0 10267083      853.  8758855797.
##  4 Afghanistan Asia       1967    34.0 11537966      836.  9648014150.
##  5 Afghanistan Asia       1972    36.1 13079460      740.  9678553274.
##  6 Afghanistan Asia       1977    38.4 14880372      786. 11697659231.
##  7 Afghanistan Asia       1982    39.9 12881816      978. 12598563401.
##  8 Afghanistan Asia       1987    40.8 13867957      852. 11820990309.
##  9 Afghanistan Asia       1992    41.7 16317921      649. 10595901589.
## 10 Afghanistan Asia       1997    41.8 22227415      635. 14121995875.
## # … with 1,694 more rows
## # ℹ Use `print(n = ...)` to see more rows
```
…
6. group_by
The `group_by()` function is used to group data by one or more variables. Grouping doesn't actually change how the data is presented. 

```r
gapminder
```

```
## # A tibble: 1,704 × 6
##    country     continent  year lifeExp      pop gdpPercap
##    <fct>       <fct>     <int>   <dbl>    <int>     <dbl>
##  1 Afghanistan Asia       1952    28.8  8425333      779.
##  2 Afghanistan Asia       1957    30.3  9240934      821.
##  3 Afghanistan Asia       1962    32.0 10267083      853.
##  4 Afghanistan Asia       1967    34.0 11537966      836.
##  5 Afghanistan Asia       1972    36.1 13079460      740.
##  6 Afghanistan Asia       1977    38.4 14880372      786.
##  7 Afghanistan Asia       1982    39.9 12881816      978.
##  8 Afghanistan Asia       1987    40.8 13867957      852.
##  9 Afghanistan Asia       1992    41.7 16317921      649.
## 10 Afghanistan Asia       1997    41.8 22227415      635.
## # … with 1,694 more rows
## # ℹ Use `print(n = ...)` to see more rows
```

```r
group_by( gapminder, continent )
```

```
## # A tibble: 1,704 × 6
## # Groups:   continent [5]
##    country     continent  year lifeExp      pop gdpPercap
##    <fct>       <fct>     <int>   <dbl>    <int>     <dbl>
##  1 Afghanistan Asia       1952    28.8  8425333      779.
##  2 Afghanistan Asia       1957    30.3  9240934      821.
##  3 Afghanistan Asia       1962    32.0 10267083      853.
##  4 Afghanistan Asia       1967    34.0 11537966      836.
##  5 Afghanistan Asia       1972    36.1 13079460      740.
##  6 Afghanistan Asia       1977    38.4 14880372      786.
##  7 Afghanistan Asia       1982    39.9 12881816      978.
##  8 Afghanistan Asia       1987    40.8 13867957      852.
##  9 Afghanistan Asia       1992    41.7 16317921      649.
## 10 Afghanistan Asia       1997    41.8 22227415      635.
## # … with 1,694 more rows
## # ℹ Use `print(n = ...)` to see more rows
```
…
This piece of code with nested functions: 


```r
summarise( group_by( gapminder, year, continent ), n = n() )
```

```
## `summarise()` has grouped output by 'year'. You can override using the `.groups` argument.
```

```
## # A tibble: 60 × 3
## # Groups:   year [12]
##     year continent     n
##    <int> <fct>     <int>
##  1  1952 Africa       52
##  2  1952 Americas     25
##  3  1952 Asia         33
##  4  1952 Europe       30
##  5  1952 Oceania       2
##  6  1957 Africa       52
##  7  1957 Americas     25
##  8  1957 Asia         33
##  9  1957 Europe       30
## 10  1957 Oceania       2
## # … with 50 more rows
## # ℹ Use `print(n = ...)` to see more rows
```

can be written as:


```r
gapminder |>
  group_by( year, continent ) |>
  summarise( n() )
```

```
## `summarise()` has grouped output by 'year'. You can override using the `.groups` argument.


## # A tibble: 60 × 3
## # Groups:   year [12]
##     year continent `n()`
##    <int> <fct>     <int>
##  1  1952 Africa       52
##  2  1952 Americas     25
##  3  1952 Asia         33
##  4  1952 Europe       30
##  5  1952 Oceania       2
##  6  1957 Africa       52
##  7  1957 Americas     25
##  8  1957 Asia         33
##  9  1957 Europe       30
## 10  1957 Oceania       2
## # … with 50 more rows
## # ℹ Use `print(n = ...)` to see more rows
```
…
