…
```r
gdp_per_capita
```

```
## # A tibble: 43,639 × 3
##    country  time gdp_per_capita
##    <chr>   <dbl>          <dbl>
##  1 afg      1800            603
##  2 alb      1800            667
##  3 dza      1800            716
##  4 and      1800           1197
##  5 ago      1800            618
##  6 atg      1800            757
##  7 arg      1800           1507
##  8 arm      1800            514
##  9 abw      1800            833
## 10 aus      1800            815
## # … with 43,629 more rows
```
…
```r
life_expectancy
```

```
## # A tibble: 54,787 × 3
##    country  time life_expectancy
##    <chr>   <dbl>           <dbl>
##  1 afg      1800            28.2
##  2 alb      1800            35.4
##  3 dza      1800            28.8
##  4 and      1800            NA  
##  5 ago      1800            27.0
##  6 atg      1800            33.5
##  7 arg      1800            33.2
##  8 arm      1800            34  
##  9 abw      1800            34.4
## 10 aus      1800            34.0
## # … with 54,777 more rows
```
…
```r
population
```

```
## # A tibble: 54,787 × 3
##    country  time population
##    <chr>   <dbl>      <dbl>
##  1 afg      1800    3280000
##  2 alb      1800     410445
##  3 dza      1800    2503218
##  4 and      1800       2654
##  5 ago      1800    1567028
##  6 atg      1800      37000
##  7 arg      1800     534000
##  8 arm      1800     413326
##  9 abw      1800      19286
## 10 aus      1800     351014
## # … with 54,777 more rows
```
…
```r
country_code$world_4region <- str_to_title( country_code$world_4region )
country_code
```

```
## # A tibble: 273 × 5
##    country   name                  world_4region latitude longitude
##    <chr>     <chr>                 <chr>            <dbl>     <dbl>
##  1 abkh      Abkhazia              Europe            NA       NA   
##  2 afg       Afghanistan           Asia              33       66   
##  3 akr_a_dhe Akrotiri and Dhekelia Europe            NA       NA   
##  4 ala       Åland                 Europe            60.2     20   
##  5 alb       Albania               Europe            41       20   
##  6 dza       Algeria               Africa            28        3   
##  7 asm       American Samoa        Asia             -11.1   -171.  
##  8 and       Andorra               Europe            42.5      1.52
##  9 ago       Angola                Africa           -12.5     18.5
## 10 aia       Anguilla              Americas          18.2    -63.0
## # … with 263 more rows
```
…
```
## Joining with `by = join_by(country, time)`
## Joining with `by = join_by(country, time)`
```

```r
gapminder_df
```

```
## # A tibble: 41,124 × 8
##    country   conti…¹ latit…² longi…³ year       life_…⁴ gdp_p…⁵ popul…⁶
##    <chr>     <chr>     <dbl>   <dbl> <date>       <dbl>   <dbl>   <dbl>
##  1 Afghanis… Asia         33      66 1800-01-01    28.2     603 3280000
##  2 Afghanis… Asia         33      66 1801-01-01    28.2     603 3280000
##  3 Afghanis… Asia         33      66 1802-01-01    28.2     603 3280000
##  4 Afghanis… Asia         33      66 1803-01-01    28.2     603 3280000
##  5 Afghanis… Asia         33      66 1804-01-01    28.2     603 3280000
##  6 Afghanis… Asia         33      66 1805-01-01    28.2     603 3280000
##  7 Afghanis… Asia         33      66 1806-01-01    28.2     603 3280000
##  8 Afghanis… Asia         33      66 1807-01-01    28.1     603 3280000
##  9 Afghanis… Asia         33      66 1808-01-01    28.1     603 3280000
## 10 Afghanis… Asia         33      66 1809-01-01    28.1     603 3280000
## # … with 41,114 more rows, and abbreviated variable names ¹​continent,
## #   ²​latitude, ³​longitude, ⁴​life_expectancy, ⁵​gdp_per_capita,
## #   ⁶​population
```
…
```r
gapminder_df %>% filter( grepl("[aA]ustralia", country) )
```

```
## # A tibble: 216 × 8
##    country   conti…¹ latit…² longi…³ year       life_…⁴ gdp_p…⁵ popul…⁶
##    <chr>     <chr>     <dbl>   <dbl> <date>       <dbl>   <dbl>   <dbl>
##  1 Australia Asia        -25     135 1800-01-01    34.0     815  351014
##  2 Australia Asia        -25     135 1801-01-01    34.0     816  350143
##  3 Australia Asia        -25     135 1802-01-01    34.0     818  349274
##  4 Australia Asia        -25     135 1803-01-01    34.0     820  348407
##  5 Australia Asia        -25     135 1804-01-01    34.0     822  347543
##  6 Australia Asia        -25     135 1805-01-01    34.0     824  346681
##  7 Australia Asia        -25     135 1806-01-01    34.0     826  345821
##  8 Australia Asia        -25     135 1807-01-01    34.0     828  344963
##  9 Australia Asia        -25     135 1808-01-01    34.0     830  344107
## 10 Australia Asia        -25     135 1809-01-01    34.0     832  343253
## # … with 206 more rows, and abbreviated variable names ¹​continent,
## #   ²​latitude, ³​longitude, ⁴​life_expectancy, ⁵​gdp_per_capita,
## #   ⁶​population
```
…
In the code below,the "if_else" function is used to check if the values in the "country" column are present in the "V1" column of the "oceania" data frame. If the values are present, the "continent" column is updated with the value "Oceania". If not, the original value in the "continent" column is kept unchanged.


```r
gapminder_df %>%  
  mutate( continent = if_else(country %in% oceania$V1, "Oceania", continent) ) -> gapminder_df

gapminder_df %>% filter( grepl("[aA]ustralia", country) )
```

```
## # A tibble: 216 × 8
##    country   conti…¹ latit…² longi…³ year       life_…⁴ gdp_p…⁵ popul…⁶
##    <chr>     <chr>     <dbl>   <dbl> <date>       <dbl>   <dbl>   <dbl>
##  1 Australia Oceania     -25     135 1800-01-01    34.0     815  351014
##  2 Australia Oceania     -25     135 1801-01-01    34.0     816  350143
##  3 Australia Oceania     -25     135 1802-01-01    34.0     818  349274
##  4 Australia Oceania     -25     135 1803-01-01    34.0     820  348407
##  5 Australia Oceania     -25     135 1804-01-01    34.0     822  347543
##  6 Australia Oceania     -25     135 1805-01-01    34.0     824  346681
##  7 Australia Oceania     -25     135 1806-01-01    34.0     826  345821
##  8 Australia Oceania     -25     135 1807-01-01    34.0     828  344963
##  9 Australia Oceania     -25     135 1808-01-01    34.0     830  344107
## 10 Australia Oceania     -25     135 1809-01-01    34.0     832  343253
## # … with 206 more rows, and abbreviated variable names ¹​continent,
## #   ²​latitude, ³​longitude, ⁴​life_expectancy, ⁵​gdp_per_capita,
## #   ⁶​population
```
…
